…
The returned object has the additional column `boot` which is a nested tibble that includes the cutpoints per bootstrap sample along with the metric calculated using the function in `metric` and a number of additional metrics. The values in the second column that are calculated using the function in `metric` represent out-of-bag results. The other default metrics are suffixed by `_b` to indicate in-bag results or `_oob` to indicate out-of-bag results:

``` r
opt_cut$boot
#> [[1]]
#> # A tibble: 200 × 18
#>    optimal_cutpoint Sum_Sens_Spec Accuracy_b Accuracy_oob Sensitivity_b
#> *             <dbl>         <dbl>      <dbl>        <dbl>         <dbl>
#> 1                 4      1.595405  0.9229323    0.8601036     0.8604651
#> 2                 2      1.802198  0.8571429    0.8775510     0.8518519
#> 3                 2      1.678810  0.8552632    0.8620690     0.9655172
#> 4                 3      1.619565  0.9060150    0.8622449     0.8529412
#> 5                 2      1.695069  0.8909774    0.8315217     0.9032258
#> 6                 4      1.561418  0.9285714    0.8578431     0.8918919
#> 7                 2      1.729365  0.8439850    0.8711340     0.9062500
#> 8                 2      1.757695  0.8308271    0.8974359     0.7948718
#> 9                 3      1.476381  0.8815789    0.8743719     0.9428571
#> 10                1      1.667962  0.7819549    0.7609756     0.9354839
#> # ... with 190 more rows, and 13 more variables: Sensitivity_oob <dbl>,
#> #   Specificity_b <dbl>, Specificity_oob <dbl>, Kappa_b <dbl>,
#> #   Kappa_oob <dbl>, TP_b <dbl>, FP_b <dbl>, TN_b <dbl>, FN_b <dbl>,
#> #   TP_oob <dbl>, FP_oob <dbl>, TN_oob <dbl>, FN_oob <dbl>
```
…
### Manual plotting

Since **cutpointr** returns a tidy data frame with the supplied data, bootstrap results and the ROC curve in nested tibbles these data can coveniently be plotted manually. This offers additional ways of tweaking these plots as well as the possibility to plot results that are not included in `plot`, `plot_metric`, `plot_cut_boot`, `plot_metric_boot` or `plot_roc`. The relevant nested tibbles are in the columns `data`, `roc_curve` and `boot`. The following is an example of accessing and plotting the grouped data.

``` r
set.seed(123) # Some missing values expected
opt_cut <- cutpointr(suicide, dsi, suicide, gender, boot_runs = 100)
#> Assuming yes as the positive class
#> Assuming the positive class has higher x values
#> Warning in .f(.x[[i]], ...): 4 Missing values in bootstrap, maybe due to
#> sampling of only one class
head(opt_cut$data)
#> [[1]]
#> # A tibble: 392 × 2
#>      dsi suicide
#>    <dbl>  <fctr>
#> 1      1      no
#> 2      0      no
#> 3      0      no
#> 4      0      no
#> 5      0      no
#> 6      0      no
#> 7      0      no
#> 8      1      no
#> 9      0      no
#> 10     0      no
#> # ... with 382 more rows
#> 
#> [[2]]
#> # A tibble: 140 × 2
#>      dsi suicide
#>    <dbl>  <fctr>
#> 1      0      no
#> 2      2      no
#> 3      1      no
#> 4      0      no
#> 5      0      no
#> 6      0      no
#> 7      1      no
#> 8      0      no
#> 9      0      no
#> 10     0      no
#> # ... with 130 more rows
…
